[gd_scene load_steps=3 format=2]

[ext_resource path="res://Ent/Interactable/Interactableexample.gd" type="Script" id=1]

[sub_resource type="RectangleShape2D" id=1]
extents = Vector2( 8, 50 )

[node name="Area2D" type="Area2D"]
script = ExtResource( 1 )

[node name="CollisionShape2D" type="CollisionShape2D" parent="."]
position = Vector2( 1, 3 )
shape = SubResource( 1 )
